{
  "project_info": {
    "project_number": "992687772612",
    "firebase_url": "https://teste-android-23d4f.firebaseio.com",
    "project_id": "teste-android-23d4f",
    "storage_bucket": "teste-android-23d4f.appspot.com"
  },
  "client": [
    {
      "client_info": {
        "mobilesdk_app_id": "1:992687772612:android:1433ff8b15d8848b",
        "android_client_info": {
          "package_name": "br.com.americasaude.testeamerica"
        }
      },
      "oauth_client": [
        {
          "client_id": "992687772612-drp19cof105d595sao7m7e0adauh4u49.apps.googleusercontent.com",
          "client_type": 3
        }
      ],
      "api_key": [
        {
          "current_key": "AIzaSyBMGI92mYmgpN0Rn92-TXwbgw0W4zmLIDk"
        }
      ],
      "services": {
        "appinvite_service": {
          "other_platform_oauth_client": [
            {
              "client_id": "992687772612-drp19cof105d595sao7m7e0adauh4u49.apps.googleusercontent.com",
              "client_type": 3
            }
          ]
        }
      }
    }
  ],
  "configuration_version": "1"
}